{"name":"Consulta de usuario","id":"consultar-usuario-en-reqres-in;consulta-de-usuario","scenarioId":"consultarUsuario/consultar_usuario:Consulta de usuario","methodName":"Consulta de usuario","testSteps":[{"number":1,"description":"Cuando se consulta usuarios","duration":25085,"startTime":"2024-11-26T17:16:37.570454300-05:00[America/Bogota]","result":"SUCCESS","precondition":false,"level":0,"children":[{"number":2,"description":"Actor consultar usuarios task","duration":24696,"startTime":"2024-11-26T17:16:37.956605300-05:00[America/Bogota]","result":"SUCCESS","precondition":false,"level":1,"children":[{"number":3,"description":"Actor all","duration":24662,"startTime":"2024-11-26T17:16:37.989625900-05:00[America/Bogota]","result":"SUCCESS","precondition":false,"level":2,"children":[{"number":4,"description":"Actor executes a GET on the resource /api/users","duration":24546,"startTime":"2024-11-26T17:16:38.097993-05:00[America/Bogota]","result":"SUCCESS","precondition":false,"level":3,"children":[{"number":5,"description":"GET https://reqres.in/api/users","duration":3,"startTime":"2024-11-26T17:17:02.640708300-05:00[America/Bogota]","result":"SUCCESS","restQuery":{"method":"GET","path":"https://reqres.in/api/users","content":"","contentType":"application/json","requestHeaders":"accept\u003dapplication/json\r\n\t\t\t\tContent-Type\u003dapplication/json","requestCookies":"","responseHeaders":"Date: Tue, 26 Nov 2024 22:17:03 GMT\r\nContent-Type: application/json; charset\u003dutf-8\r\nTransfer-Encoding: chunked\r\nConnection: keep-alive\r\nReport-To: {\"group\":\"heroku-nel\",\"max_age\":3600,\"endpoints\":[{\"url\":\"https://nel.heroku.com/reports?ts\u003d1732599724\u0026sid\u003dc4c9725f-1ab0-44d8-820f-430df2718e11\u0026s\u003dIqdAemXCieCdYRfke1ckHkRWlJxTWG1O7FWlvsvo%2FLE%3D\"}]}\r\nReporting-Endpoints: heroku-nel\u003dhttps://nel.heroku.com/reports?ts\u003d1732599724\u0026sid\u003dc4c9725f-1ab0-44d8-820f-430df2718e11\u0026s\u003dIqdAemXCieCdYRfke1ckHkRWlJxTWG1O7FWlvsvo%2FLE%3D\r\nNel: {\"report_to\":\"heroku-nel\",\"max_age\":3600,\"success_fraction\":0.005,\"failure_fraction\":0.05,\"response_headers\":[\"Via\"]}\r\nX-Powered-By: Express\r\nAccess-Control-Allow-Origin: *\r\nEtag: W/\"41e-bY3U72nulxuwNd/TmihMEHjLmek\"\r\nVia: 1.1 vegur\r\nCache-Control: max-age\u003d14400\r\nCF-Cache-Status: HIT\r\nAge: 3589\r\nVary: Accept-Encoding\r\nServer: cloudflare\r\nCF-RAY: 8e8d3f13ac2e741c-MIA\r\nContent-Encoding: gzip\r\nserver-timing: cfL4;desc\u003d\"?proto\u003dTCP\u0026rtt\u003d70789\u0026sent\u003d6\u0026recv\u003d6\u0026lost\u003d0\u0026retrans\u003d0\u0026sent_bytes\u003d3110\u0026recv_bytes\u003d735\u0026delivery_rate\u003d63182\u0026cwnd\u003d244\u0026unsent_bytes\u003d0\u0026cid\u003dff10b79c111e181f\u0026ts\u003d192\u0026x\u003d0\"\r","responseCookies":"\r","responseBody":"{\n    \"page\": 1,\n    \"per_page\": 6,\n    \"total\": 12,\n    \"total_pages\": 2,\n    \"data\": [\n        {\n            \"id\": 1,\n            \"email\": \"george.bluth@reqres.in\",\n            \"first_name\": \"George\",\n            \"last_name\": \"Bluth\",\n            \"avatar\": \"https://reqres.in/img/faces/1-image.jpg\"\n        },\n        {\n            \"id\": 2,\n            \"email\": \"janet.weaver@reqres.in\",\n            \"first_name\": \"Janet\",\n            \"last_name\": \"Weaver\",\n            \"avatar\": \"https://reqres.in/img/faces/2-image.jpg\"\n        },\n        {\n            \"id\": 3,\n            \"email\": \"emma.wong@reqres.in\",\n            \"first_name\": \"Emma\",\n            \"last_name\": \"Wong\",\n            \"avatar\": \"https://reqres.in/img/faces/3-image.jpg\"\n        },\n        {\n            \"id\": 4,\n            \"email\": \"eve.holt@reqres.in\",\n            \"first_name\": \"Eve\",\n            \"last_name\": \"Holt\",\n            \"avatar\": \"https://reqres.in/img/faces/4-image.jpg\"\n        },\n        {\n            \"id\": 5,\n            \"email\": \"charles.morris@reqres.in\",\n            \"first_name\": \"Charles\",\n            \"last_name\": \"Morris\",\n            \"avatar\": \"https://reqres.in/img/faces/5-image.jpg\"\n        },\n        {\n            \"id\": 6,\n            \"email\": \"tracey.ramos@reqres.in\",\n            \"first_name\": \"Tracey\",\n            \"last_name\": \"Ramos\",\n            \"avatar\": \"https://reqres.in/img/faces/6-image.jpg\"\n        }\n    ],\n    \"support\": {\n        \"url\": \"https://contentcaddy.io?utm_source\u003dreqres\u0026utm_medium\u003djson\u0026utm_campaign\u003dreferral\",\n        \"text\": \"Tired of writing endless social media content? Let Content Caddy generate it for you.\"\n    }\n}","statusCode":200},"precondition":false,"level":4}]}]}]}]},{"number":6,"description":"Entonces se visualiza la respuesta exitosa","duration":156,"startTime":"2024-11-26T17:17:02.656770500-05:00[America/Bogota]","result":"SUCCESS","precondition":false,"level":0,"children":[{"number":7,"description":"Then respuesta servicio consultar usuarios","duration":9,"startTime":"2024-11-26T17:17:02.804247200-05:00[America/Bogota]","result":"SUCCESS","precondition":false,"level":1}]}],"userStory":{"id":"consultarUsuario/consultar_usuario","storyName":"Consultar usuario en Reqres_in","displayName":"Consultar usuario en Reqres_in","path":"consultarUsuario/consultar_usuario","pathElements":[{"name":"consultarUsuario","description":""},{"name":"consultar_usuario","description":""}],"narrative":"    Quiero consultar usuarios","type":"feature"},"title":"Consulta de usuario","description":"","tags":[{"name":"ConsultarUsuarios","type":"tag","displayName":"ConsultarUsuarios"}],"startTime":"2024-11-26T17:16:37.381103600-05:00[America/Bogota]","endTime":"2024-11-26T17:17:02.815824900-05:00[America/Bogota]","duration":25259,"projectKey":"","isManualTestingUpToDate":false,"manual":false,"testSource":"Cucumber","actors":[{"name":"Actor","can":["browse the web","call an API at https://reqres.in"]}],"order":0,"result":"SUCCESS"}